M48
;DRILL file {KiCad 4.0.5} date Sat Jan 21 21:54:48 2017
;FORMAT={-:-/ absolute / metric / decimal}
FMAT,2
METRIC,TZ
T1C0.813
T2C1.200
%
G90
G05
M71
T1
X185.42Y-107.95
X185.42Y-118.11
X185.42Y-128.27
X187.96Y-102.87
X187.96Y-113.03
X187.96Y-123.19
X190.5Y-102.87
X190.5Y-113.03
X190.5Y-123.19
X193.04Y-107.95
X193.04Y-118.11
X193.04Y-128.27
X195.58Y-105.41
X195.58Y-107.95
X195.58Y-110.49
X195.58Y-113.03
X195.58Y-120.65
X195.58Y-125.73
X203.2Y-105.41
X203.2Y-107.95
X203.2Y-110.49
X203.2Y-113.03
X203.2Y-120.65
X203.2Y-125.73
X205.74Y-125.73
X213.36Y-125.73
T2
X218.44Y-102.87
X218.44Y-105.41
X218.44Y-125.73
T0
M30
