%TF.GenerationSoftware,KiCad,Pcbnew,4.0.5*%
%TF.CreationDate,2017-01-21T21:54:45+01:00*%
%TF.ProjectId,entscheidungsfinder,656E74736368656964756E677366696E,rev?*%
%TF.FileFunction,Soldermask,Bot*%
%FSLAX46Y46*%
G04 Gerber Fmt 4.6, Leading zero omitted, Abs format (unit mm)*
G04 Created by KiCad (PCBNEW 4.0.5) date Sat Jan 21 21:54:45 2017*
%MOMM*%
%LPD*%
G01*
G04 APERTURE LIST*
%ADD10C,0.150000*%
%ADD11O,2.500000X1.500000*%
%ADD12C,1.800000*%
%ADD13R,1.800000X1.800000*%
%ADD14C,2.500000*%
%ADD15C,2.560000*%
G04 APERTURE END LIST*
D10*
X182881666Y-130810000D02*
G75*
G03X182881666Y-130810000I-1666J0D01*
G01*
X182877500Y-130810000D02*
X182882500Y-130810000D01*
X182880000Y-130807500D02*
X182880000Y-130812500D01*
X182881666Y-130810000D02*
G75*
G03X182881666Y-130810000I-1666J0D01*
G01*
X182877500Y-130810000D02*
X182882500Y-130810000D01*
X182880000Y-130807500D02*
X182880000Y-130812500D01*
X231140000Y-97790000D02*
X182880000Y-97790000D01*
X231140000Y-130810000D02*
X231140000Y-97790000D01*
X182880000Y-130810000D02*
X231140000Y-130810000D01*
X182880000Y-97790000D02*
X182880000Y-130810000D01*
D11*
X203200000Y-120650000D03*
X203200000Y-125730000D03*
X195580000Y-120650000D03*
X195580000Y-125730000D03*
D12*
X185420000Y-128270000D03*
X193040000Y-128270000D03*
X185420000Y-118110000D03*
X193040000Y-118110000D03*
X185420000Y-107950000D03*
X193040000Y-107950000D03*
X205740000Y-125730000D03*
X213360000Y-125730000D03*
D13*
X195580000Y-105410000D03*
X195580000Y-107950000D03*
X195580000Y-110490000D03*
X195580000Y-113030000D03*
X203200000Y-113030000D03*
X203200000Y-110490000D03*
X203200000Y-107950000D03*
X203200000Y-105410000D03*
X190500000Y-102870000D03*
X187960000Y-102870000D03*
X190500000Y-113030000D03*
X187960000Y-113030000D03*
X190500000Y-123190000D03*
X187960000Y-123190000D03*
D14*
X218440000Y-102870000D03*
X218440000Y-125730000D03*
D15*
X218440000Y-105410000D03*
M02*
