PCBNEW-LibModule-V1
$INDEX
LOGO
$EndINDEX
#
# LOGO
# pixmap w = 750, h = 150
#
$MODULE LOGO
Po 0 0 0 15 00000000 00000000 ~~
Li LOGO
T0 0 2800 600 600 0 120 N I 21 "G***"
T1 0 -2800 600 600 0 120 N I 21 "LOGO"
DP 0 0 0 0 10 1 21
Dl 3543 2222
Dl 3491 2226
Dl 3483 2226
Dl 3431 2222
Dl 3436 2211
Dl 3442 2210
Dl 3514 2205
Dl 3542 2211
Dl 3543 2222
Dl 3543 2222
DP 0 0 0 0 6 1 21
Dl 2366 1983
Dl 2350 2000
Dl 2333 1983
Dl 2350 1966
Dl 2366 1983
Dl 2366 1983
DP 0 0 0 0 6 1 21
Dl 5300 1983
Dl 5283 2000
Dl 5266 1983
Dl 5283 1966
Dl 5300 1983
Dl 5300 1983
DP 0 0 0 0 6 1 21
Dl -9100 1716
Dl -9117 1733
Dl -9134 1716
Dl -9117 1700
Dl -9100 1716
Dl -9100 1716
DP 0 0 0 0 6 1 21
Dl -12000 1316
Dl -12017 1333
Dl -12034 1316
Dl -12017 1300
Dl -12000 1316
Dl -12000 1316
DP 0 0 0 0 6 1 21
Dl -9334 1316
Dl -9350 1333
Dl -9367 1316
Dl -9350 1300
Dl -9334 1316
Dl -9334 1316
DP 0 0 0 0 6 1 21
Dl -2200 1316
Dl -2217 1333
Dl -2234 1316
Dl -2217 1300
Dl -2200 1316
Dl -2200 1316
DP 0 0 0 0 6 1 21
Dl 8366 1316
Dl 8350 1333
Dl 8333 1316
Dl 8350 1300
Dl 8366 1316
Dl 8366 1316
DP 0 0 0 0 6 1 21
Dl -3134 1216
Dl -3150 1233
Dl -3167 1216
Dl -3150 1200
Dl -3134 1216
Dl -3134 1216
DP 0 0 0 0 6 1 21
Dl 6133 1216
Dl 6116 1233
Dl 6100 1216
Dl 6116 1200
Dl 6133 1216
Dl 6133 1216
DP 0 0 0 0 6 1 21
Dl -12100 1183
Dl -12117 1200
Dl -12134 1183
Dl -12117 1166
Dl -12100 1183
Dl -12100 1183
DP 0 0 0 0 6 1 21
Dl -3767 1183
Dl -3784 1200
Dl -3800 1183
Dl -3784 1166
Dl -3767 1183
Dl -3767 1183
DP 0 0 0 0 10 1 21
Dl -11538 1055
Dl -11544 1108
Dl -11552 1124
Dl -11557 1082
Dl -11558 1033
Dl -11555 961
Dl -11549 941
Dl -11544 958
Dl -11538 1055
Dl -11538 1055
DP 0 0 0 0 6 1 21
Dl -12167 1083
Dl -12184 1100
Dl -12200 1083
Dl -12184 1066
Dl -12167 1083
Dl -12167 1083
DP 0 0 0 0 6 1 21
Dl -9900 1083
Dl -9917 1100
Dl -9934 1083
Dl -9917 1066
Dl -9900 1083
Dl -9900 1083
DP 0 0 0 0 6 1 21
Dl -2334 1083
Dl -2350 1100
Dl -2367 1083
Dl -2350 1066
Dl -2334 1083
Dl -2334 1083
DP 0 0 0 0 6 1 21
Dl -9967 1016
Dl -9984 1033
Dl -10000 1016
Dl -9984 1000
Dl -9967 1016
Dl -9967 1016
DP 0 0 0 0 6 1 21
Dl -11534 850
Dl -11550 866
Dl -11567 850
Dl -11550 833
Dl -11534 850
Dl -11534 850
DP 0 0 0 0 6 1 21
Dl -10600 850
Dl -10617 866
Dl -10634 850
Dl -10617 833
Dl -10600 850
Dl -10600 850
DP 0 0 0 0 6 1 21
Dl -2900 816
Dl -2917 833
Dl -2934 816
Dl -2917 800
Dl -2900 816
Dl -2900 816
DP 0 0 0 0 6 1 21
Dl 6366 816
Dl 6350 833
Dl 6333 816
Dl 6350 800
Dl 6366 816
Dl 6366 816
DP 0 0 0 0 6 1 21
Dl -3534 783
Dl -3550 800
Dl -3567 783
Dl -3550 766
Dl -3534 783
Dl -3534 783
DP 0 0 0 0 6 1 21
Dl -12334 750
Dl -12350 766
Dl -12367 750
Dl -12350 733
Dl -12334 750
Dl -12334 750
DP 0 0 0 0 6 1 21
Dl -10067 716
Dl -10084 733
Dl -10100 716
Dl -10084 700
Dl -10067 716
Dl -10067 716
DP 0 0 0 0 6 1 21
Dl -2567 683
Dl -2584 700
Dl -2600 683
Dl -2584 666
Dl -2567 683
Dl -2567 683
DP 0 0 0 0 6 1 21
Dl -867 683
Dl -884 700
Dl -900 683
Dl -884 666
Dl -867 683
Dl -867 683
DP 0 0 0 0 6 1 21
Dl -10067 650
Dl -10084 666
Dl -10100 650
Dl -10084 633
Dl -10067 650
Dl -10067 650
DP 0 0 0 0 6 1 21
Dl -2767 583
Dl -2784 600
Dl -2800 583
Dl -2784 566
Dl -2767 583
Dl -2767 583
DP 0 0 0 0 6 1 21
Dl -11734 483
Dl -11750 500
Dl -11767 483
Dl -11750 466
Dl -11734 483
Dl -11734 483
DP 0 0 0 0 6 1 21
Dl -1000 450
Dl -1017 466
Dl -1034 450
Dl -1017 433
Dl -1000 450
Dl -1000 450
DP 0 0 0 0 6 1 21
Dl -11767 350
Dl -11784 366
Dl -11800 350
Dl -11784 333
Dl -11767 350
Dl -11767 350
DP 0 0 0 0 13 1 21
Dl -12471 -43
Dl -12475 94
Dl -12476 108
Dl -12482 141
Dl -12486 114
Dl -12488 34
Dl -12489 -34
Dl -12488 -142
Dl -12484 -200
Dl -12479 -202
Dl -12476 -175
Dl -12471 -43
Dl -12471 -43
DP 0 0 0 0 6 1 21
Dl -8200 216
Dl -8217 233
Dl -8234 216
Dl -8217 200
Dl -8200 216
Dl -8200 216
DP 0 0 0 0 6 1 21
Dl 12366 116
Dl 12350 133
Dl 12333 116
Dl 12350 100
Dl 12366 116
Dl 12366 116
DP 0 0 0 0 6 1 21
Dl -9834 50
Dl -9850 66
Dl -9867 50
Dl -9850 33
Dl -9834 50
Dl -9834 50
DP 0 0 0 0 6 1 21
Dl -9667 -117
Dl -9684 -100
Dl -9700 -117
Dl -9684 -134
Dl -9667 -117
Dl -9667 -117
DP 0 0 0 0 6 1 21
Dl -11034 -150
Dl -11050 -134
Dl -11067 -150
Dl -11050 -167
Dl -11034 -150
Dl -11034 -150
DP 0 0 0 0 6 1 21
Dl 5866 -150
Dl 5850 -134
Dl 5833 -150
Dl 5850 -167
Dl 5866 -150
Dl 5866 -150
DP 0 0 0 0 6 1 21
Dl -11234 -250
Dl -11250 -234
Dl -11267 -250
Dl -11250 -267
Dl -11234 -250
Dl -11234 -250
DP 0 0 0 0 6 1 21
Dl -8200 -284
Dl -8217 -267
Dl -8234 -284
Dl -8217 -300
Dl -8200 -284
Dl -8200 -284
DP 0 0 0 0 6 1 21
Dl -6500 -384
Dl -6517 -367
Dl -6534 -384
Dl -6517 -400
Dl -6500 -384
Dl -6500 -384
DP 0 0 0 0 6 1 21
Dl 7066 -384
Dl 7050 -367
Dl 7033 -384
Dl 7050 -400
Dl 7066 -384
Dl 7066 -384
DP 0 0 0 0 6 1 21
Dl -10634 -550
Dl -10650 -534
Dl -10667 -550
Dl -10650 -567
Dl -10634 -550
Dl -10634 -550
DP 0 0 0 0 6 1 21
Dl -10134 -550
Dl -10150 -534
Dl -10167 -550
Dl -10150 -567
Dl -10134 -550
Dl -10134 -550
DP 0 0 0 0 6 1 21
Dl -10834 -617
Dl -10850 -600
Dl -10867 -617
Dl -10850 -634
Dl -10834 -617
Dl -10834 -617
DP 0 0 0 0 6 1 21
Dl -9934 -617
Dl -9950 -600
Dl -9967 -617
Dl -9950 -634
Dl -9934 -617
Dl -9934 -617
DP 0 0 0 0 6 1 21
Dl -8300 -717
Dl -8317 -700
Dl -8334 -717
Dl -8317 -734
Dl -8300 -717
Dl -8300 -717
DP 0 0 0 0 6 1 21
Dl -12334 -817
Dl -12350 -800
Dl -12367 -817
Dl -12350 -834
Dl -12334 -817
Dl -12334 -817
DP 0 0 0 0 6 1 21
Dl 6300 -917
Dl 6283 -900
Dl 6266 -917
Dl 6283 -934
Dl 6300 -917
Dl 6300 -917
DP 0 0 0 0 6 1 21
Dl -3567 -1017
Dl -3584 -1000
Dl -3600 -1017
Dl -3584 -1034
Dl -3567 -1017
Dl -3567 -1017
DP 0 0 0 0 6 1 21
Dl -8934 -1150
Dl -8950 -1134
Dl -8967 -1150
Dl -8950 -1167
Dl -8934 -1150
Dl -8934 -1150
DP 0 0 0 0 6 1 21
Dl 12366 -1184
Dl 12350 -1167
Dl 12333 -1184
Dl 12350 -1200
Dl 12366 -1184
Dl 12366 -1184
DP 0 0 0 0 6 1 21
Dl -12100 -1250
Dl -12117 -1234
Dl -12134 -1250
Dl -12117 -1267
Dl -12100 -1250
Dl -12100 -1250
DP 0 0 0 0 6 1 21
Dl -11567 -1250
Dl -11584 -1234
Dl -11600 -1250
Dl -11584 -1267
Dl -11567 -1250
Dl -11567 -1250
DP 0 0 0 0 6 1 21
Dl -9167 -1284
Dl -9184 -1267
Dl -9200 -1284
Dl -9184 -1300
Dl -9167 -1284
Dl -9167 -1284
DP 0 0 0 0 6 1 21
Dl 7933 -1284
Dl 7916 -1267
Dl 7900 -1284
Dl 7916 -1300
Dl 7933 -1284
Dl 7933 -1284
DP 0 0 0 0 6 1 21
Dl -12000 -1384
Dl -12017 -1367
Dl -12034 -1384
Dl -12017 -1400
Dl -12000 -1384
Dl -12000 -1384
DP 0 0 0 0 6 1 21
Dl 6566 -1384
Dl 6550 -1367
Dl 6533 -1384
Dl 6550 -1400
Dl 6566 -1384
Dl 6566 -1384
DP 0 0 0 0 6 1 21
Dl -8700 -1417
Dl -8717 -1400
Dl -8734 -1417
Dl -8717 -1434
Dl -8700 -1417
Dl -8700 -1417
DP 0 0 0 0 6 1 21
Dl -9900 -1450
Dl -9917 -1434
Dl -9934 -1450
Dl -9917 -1467
Dl -9900 -1450
Dl -9900 -1450
DP 0 0 0 0 6 1 21
Dl 12033 -1450
Dl 12016 -1434
Dl 12000 -1450
Dl 12016 -1467
Dl 12033 -1450
Dl 12033 -1450
DP 0 0 0 0 6 1 21
Dl -9967 -1484
Dl -9984 -1467
Dl -10000 -1484
Dl -9984 -1500
Dl -9967 -1484
Dl -9967 -1484
DP 0 0 0 0 6 1 21
Dl -10567 -1550
Dl -10584 -1534
Dl -10600 -1550
Dl -10584 -1567
Dl -10567 -1550
Dl -10567 -1550
DP 0 0 0 0 6 1 21
Dl -10200 -1550
Dl -10217 -1534
Dl -10234 -1550
Dl -10217 -1567
Dl -10200 -1550
Dl -10200 -1550
DP 0 0 0 0 6 1 21
Dl 1733 -1550
Dl 1716 -1534
Dl 1700 -1550
Dl 1716 -1567
Dl 1733 -1550
Dl 1733 -1550
DP 0 0 0 0 6 1 21
Dl -11700 -1684
Dl -11717 -1667
Dl -11734 -1684
Dl -11717 -1700
Dl -11700 -1684
Dl -11700 -1684
DP 0 0 0 0 6 1 21
Dl -9100 -1784
Dl -9117 -1767
Dl -9134 -1784
Dl -9117 -1800
Dl -9100 -1784
Dl -9100 -1784
DP 0 0 0 0 6 1 21
Dl -9200 -1850
Dl -9217 -1834
Dl -9234 -1850
Dl -9217 -1867
Dl -9200 -1850
Dl -9200 -1850
DP 0 0 0 0 6 1 21
Dl -10467 -1884
Dl -10484 -1867
Dl -10500 -1884
Dl -10484 -1900
Dl -10467 -1884
Dl -10467 -1884
DP 0 0 0 0 6 1 21
Dl 6833 -2050
Dl 6816 -2034
Dl 6800 -2050
Dl 6816 -2067
Dl 6833 -2050
Dl 6833 -2050
DP 0 0 0 0 6 1 21
Dl 10933 -2050
Dl 10916 -2034
Dl 10900 -2050
Dl 10916 -2067
Dl 10933 -2050
Dl 10933 -2050
DP 0 0 0 0 6 1 21
Dl 7033 -2084
Dl 7016 -2067
Dl 7000 -2084
Dl 7016 -2100
Dl 7033 -2084
Dl 7033 -2084
DP 0 0 0 0 6 1 21
Dl -10834 -2117
Dl -10850 -2100
Dl -10867 -2117
Dl -10850 -2134
Dl -10834 -2117
Dl -10834 -2117
DP 0 0 0 0 6 1 21
Dl -9834 -2117
Dl -9850 -2100
Dl -9867 -2117
Dl -9850 -2134
Dl -9834 -2117
Dl -9834 -2117
DP 0 0 0 0 6 1 21
Dl 10766 -2117
Dl 10750 -2100
Dl 10733 -2117
Dl 10750 -2134
Dl 10766 -2117
Dl 10766 -2117
DP 0 0 0 0 6 1 21
Dl -10667 -2150
Dl -10684 -2134
Dl -10700 -2150
Dl -10684 -2167
Dl -10667 -2150
Dl -10667 -2150
DP 0 0 0 0 6 1 21
Dl -10000 -2150
Dl -10017 -2134
Dl -10034 -2150
Dl -10017 -2167
Dl -10000 -2150
Dl -10000 -2150
DP 0 0 0 0 10 1 21
Dl 10876 -2478
Dl 10824 -2474
Dl 10816 -2474
Dl 10764 -2478
Dl 10769 -2489
Dl 10775 -2490
Dl 10848 -2495
Dl 10875 -2489
Dl 10876 -2478
Dl 10876 -2478
DP 0 0 0 0 10 1 21
Dl 11110 -2478
Dl 11057 -2474
Dl 11050 -2474
Dl 10998 -2478
Dl 11003 -2489
Dl 11008 -2490
Dl 11081 -2495
Dl 11108 -2489
Dl 11110 -2478
Dl 11110 -2478
$EndMODULE LOGO
$EndLIBRARY
